﻿ID,expPart,oldResp,newResp,simResp,isPractice,blockIdx,trialIdx,totalTrialIdx,pairID,stimCode,imgStimFull,violation,oldOrNew,oldLureFoil,corrResp,trigVar,jitVar,blocks.thisRepN,blocks.thisTrialN,blocks.thisN,blocks.thisIndex,trials.thisRepN,trials.thisTrialN,trials.thisN,trials.thisIndex,blockID,recog_resp.keys,recog_resp.corr,recog_resp.rt,participant,date,expName,psychopyVersion,frameRate,
-99,Day3_practice_recog,-99,-99,down,1,0,1,1,-99,-99,stimuli/practice/01_Air_freshener.jpg,-99,-99,-99,down,0,30,0,0,0,0,0,0,0,0,A0,right,0,1.3178964001126587,2,2021_Oct_27_1050,simPEL-EEG_ses-3_part-4_label-recog,2021.1.4,59.99638817596092,
-99,Day3_practice_recog,-99,-99,down,1,0,2,2,-99,-99,stimuli/practice/12_brush_comb.jpg,-99,-99,-99,down,0,15,0,0,0,0,0,1,1,1,A0,left,0,1.0087880999781191,2,2021_Oct_27_1050,simPEL-EEG_ses-3_part-4_label-recog,2021.1.4,59.99638817596092,
-99,Day3_practice_recog,-99,-99,down,1,0,3,3,-99,-99,stimuli/practice/15makeupBrush2.jpg,-99,-99,-99,down,0,15,0,0,0,0,0,2,2,2,A0,left,0,1.6437671999447048,2,2021_Oct_27_1050,simPEL-EEG_ses-3_part-4_label-recog,2021.1.4,59.99638817596092,
-99,Day3_practice_recog,-99,-99,down,1,0,4,4,-99,-99,stimuli/practice/10razor.jpg,-99,-99,-99,down,0,27,0,0,0,0,0,3,3,3,A0,left,0,1.3425143002532423,2,2021_Oct_27_1050,simPEL-EEG_ses-3_part-4_label-recog,2021.1.4,59.99638817596092,
-99,Day3_practice_recog,-99,-99,down,1,0,5,5,-99,-99,stimuli/practice/06computer.jpg,-99,-99,-99,down,0,29,0,0,0,0,0,4,4,4,A0,right,0,0.8640546002425253,2,2021_Oct_27_1050,simPEL-EEG_ses-3_part-4_label-recog,2021.1.4,59.99638817596092,
-99,Day3_practice_recog,-99,-99,down,1,0,6,6,-99,-99,stimuli/practice/02_cutboard.jpg,-99,-99,-99,down,0,29,0,0,0,0,0,5,5,5,A0,right,0,0.9695472000166774,2,2021_Oct_27_1050,simPEL-EEG_ses-3_part-4_label-recog,2021.1.4,59.99638817596092,
-99,Day3_practice_recog,-99,-99,down,1,0,7,7,-99,-99,stimuli/practice/14juicer2.jpg,-99,-99,-99,down,0,21,0,0,0,0,0,6,6,6,A0,left,0,1.2003214000724256,2,2021_Oct_27_1050,simPEL-EEG_ses-3_part-4_label-recog,2021.1.4,59.99638817596092,
-99,Day3_practice_recog,-99,-99,down,1,0,8,8,-99,-99,stimuli/practice/08gas_can.jpg,-99,-99,-99,down,0,27,0,0,0,0,0,7,7,7,A0,right,0,1.2272449000738561,2,2021_Oct_27_1050,simPEL-EEG_ses-3_part-4_label-recog,2021.1.4,59.99638817596092,
-99,Day3_practice_recog,-99,-99,down,1,0,9,9,-99,-99,stimuli/practice/11cake_birthday.jpg,-99,-99,-99,down,0,24,0,0,0,0,0,8,8,8,A0,left,0,1.2161759999580681,2,2021_Oct_27_1050,simPEL-EEG_ses-3_part-4_label-recog,2021.1.4,59.99638817596092,
-99,Day3_practice_recog,-99,-99,down,1,0,10,10,-99,-99,stimuli/practice/13syringe2.jpg,-99,-99,-99,down,0,18,0,0,0,0,0,9,9,9,A0,right,0,2.385139999911189,2,2021_Oct_27_1050,simPEL-EEG_ses-3_part-4_label-recog,2021.1.4,59.99638817596092,
-99,Day3_practice_recog,-99,-99,down,1,0,11,11,-99,-99,stimuli/practice/09eagle.jpg,-99,-99,-99,down,0,17,0,0,0,0,0,10,10,10,A0,left,0,1.3384517999365926,2,2021_Oct_27_1050,simPEL-EEG_ses-3_part-4_label-recog,2021.1.4,59.99638817596092,
-99,Day3_practice_recog,-99,-99,down,1,0,12,12,-99,-99,stimuli/practice/07coconut.jpg,-99,-99,-99,down,0,19,0,0,0,0,0,11,11,11,A0,right,0,1.5706488001160324,2,2021_Oct_27_1050,simPEL-EEG_ses-3_part-4_label-recog,2021.1.4,59.99638817596092,
2,Day3_recognition,right,left,,0,1,1,1,foil,19051,stimuli/small/nail_polish.jpg,foil,new,,left,90,18,1,0,1,0,0,0,0,0,A1,left,1,0.7874512998387218,2,2021_Oct_27_1050,simPEL-EEG_ses-3_part-4_label-recog,2021.1.4,59.99638817596092,
2,Day3_recognition,right,left,,0,1,2,2,foil,29018,stimuli/big/bus_school.jpg,foil,new,,left,90,18,1,0,1,0,0,1,1,1,A1,left,1,0.9000887000001967,2,2021_Oct_27_1050,simPEL-EEG_ses-3_part-4_label-recog,2021.1.4,59.99638817596092,
2,Day3_recognition,right,left,,0,1,3,3,45.0,26045,stimuli/paired/big/saw1.jpg,nv_single,old,,right,71,15,1,0,1,0,0,2,2,2,A1,left,0,1.0629513002932072,2,2021_Oct_27_1050,simPEL-EEG_ses-3_part-4_label-recog,2021.1.4,59.99638817596092,
2,Day3_recognition,right,left,,0,1,4,4,64.0,-16024,stimuli/paired/small/glassBottle2.jpg,nv_single,old,,right,71,22,1,0,1,0,0,3,3,3,A1,right,1,1.1092329998500645,2,2021_Oct_27_1050,simPEL-EEG_ses-3_part-4_label-recog,2021.1.4,59.99638817596092,
2,Day3_recognition,right,left,,0,1,5,5,35.0,27066,stimuli/paired/big/trafficCone1.jpg,v_single,old,,right,70,24,1,0,1,0,0,4,4,4,A1,right,1,1.3780729002319276,2,2021_Oct_27_1050,simPEL-EEG_ses-3_part-4_label-recog,2021.1.4,59.99638817596092,
2,Day3_recognition,right,left,,0,1,6,6,foil,29026,stimuli/big/chair.jpg,foil,new,,left,90,17,1,0,1,0,0,5,5,5,A1,left,1,0.9876407999545336,2,2021_Oct_27_1050,simPEL-EEG_ses-3_part-4_label-recog,2021.1.4,59.99638817596092,
2,Day3_recognition,right,left,,0,1,7,7,21.0,27016,stimuli/paired/big/carriage1.jpg,v_single,old,,right,70,28,1,0,1,0,0,6,6,6,A1,right,1,1.2137591000646353,2,2021_Oct_27_1050,simPEL-EEG_ses-3_part-4_label-recog,2021.1.4,59.99638817596092,
2,Day3_recognition,right,left,,0,1,8,8,foil,19002,stimuli/small/apple.jpg,foil,new,,left,90,20,1,0,1,0,0,7,7,7,A1,left,1,1.6613377998583019,2,2021_Oct_27_1050,simPEL-EEG_ses-3_part-4_label-recog,2021.1.4,59.99638817596092,
2,Day3_recognition,right,left,,0,1,9,9,foil,19060,stimuli/small/peas.jpg,foil,new,,left,90,25,1,0,1,0,0,8,8,8,A1,left,1,0.9615402999334037,2,2021_Oct_27_1050,simPEL-EEG_ses-3_part-4_label-recog,2021.1.4,59.99638817596092,
2,Day3_recognition,right,left,,0,1,10,10,foil,29024,stimuli/big/cart_shopping.jpg,foil,new,,left,90,24,1,0,1,0,0,9,9,9,A1,left,1,0.9181769001297653,2,2021_Oct_27_1050,simPEL-EEG_ses-3_part-4_label-recog,2021.1.4,59.99638817596092,
2,Day3_recognition,right,left,,0,1,11,11,48.0,26050,stimuli/paired/big/sewingMachine2.jpg,nv_single,old,,right,71,21,1,0,1,0,0,10,10,10,A1,left,0,1.7170421998016536,2,2021_Oct_27_1050,simPEL-EEG_ses-3_part-4_label-recog,2021.1.4,59.99638817596092,
2,Day3_recognition,right,left,,0,1,12,12,33.0,27001,stimuli/paired/big/abacus2.jpg,v_single,old,,right,70,24,1,0,1,0,0,11,11,11,A1,right,1,1.1459776000119746,2,2021_Oct_27_1050,simPEL-EEG_ses-3_part-4_label-recog,2021.1.4,59.99638817596092,
2,Day3_recognition,right,left,,0,1,13,13,54.0,26017,stimuli/paired/big/colander1.jpg,nv_single,old,,right,71,15,1,0,1,0,0,12,12,12,A1,right,1,0.9489096999168396,2,2021_Oct_27_1050,simPEL-EEG_ses-3_part-4_label-recog,2021.1.4,59.99638817596092,
2,Day3_recognition,right,left,,0,1,14,14,foil,19056,stimuli/small/paper_airplane.jpg,foil,new,,left,90,27,1,0,1,0,0,13,13,13,A1,right,0,1.0556915998458862,2,2021_Oct_27_1050,simPEL-EEG_ses-3_part-4_label-recog,2021.1.4,59.99638817596092,
2,Day3_recognition,right,left,,0,1,15,15,6.0,-15043,stimuli/paired/small/pliers1.jpg,v_single,old,,right,70,22,1,0,1,0,0,14,14,14,A1,right,1,2.941717999987304,2,2021_Oct_27_1050,simPEL-EEG_ses-3_part-4_label-recog,2021.1.4,59.99638817596092,
2,Day3_recognition,right,left,,0,1,16,16,25.0,27051,stimuli/paired/big/suitcase2.jpg,v_single,old,,right,70,23,1,0,1,0,0,15,15,15,A1,right,1,1.0192542001605034,2,2021_Oct_27_1050,simPEL-EEG_ses-3_part-4_label-recog,2021.1.4,59.99638817596092,
2,Day3_recognition,right,left,,0,1,17,17,foil,19046,stimuli/small/lightbulb.jpg,foil,new,,left,90,17,1,0,1,0,0,16,16,16,A1,right,0,1.324843700043857,2,2021_Oct_27_1050,simPEL-EEG_ses-3_part-4_label-recog,2021.1.4,59.99638817596092,
2,Day3_recognition,right,left,,0,1,18,18,foil,29062,stimuli/big/satellite.jpg,foil,new,,left,90,22,1,0,1,0,0,17,17,17,A1,right,0,0.866991899907589,2,2021_Oct_27_1050,simPEL-EEG_ses-3_part-4_label-recog,2021.1.4,59.99638817596092,
2,Day3_recognition,right,left,,0,1,19,19,13.0,17006,stimuli/paired/small/belt1.jpg,v_single,old,,right,70,26,1,0,1,0,0,18,18,18,A1,right,1,0.8625497003085911,2,2021_Oct_27_1050,simPEL-EEG_ses-3_part-4_label-recog,2021.1.4,59.99638817596092,
2,Day3_recognition,right,left,,0,1,20,20,59.0,18001,stimuli/paired/small/babyBottle2.jpg,nv_single,old,,right,71,20,1,0,1,0,0,19,19,19,A1,right,1,3.446033100131899,2,2021_Oct_27_1050,simPEL-EEG_ses-3_part-4_label-recog,2021.1.4,59.99638817596092,
2,Day3_recognition,right,left,,0,1,21,21,foil,29019,stimuli/big/cabinet.jpg,foil,new,,left,90,18,1,0,1,0,0,20,20,20,A1,left,1,1.2069878997281194,2,2021_Oct_27_1050,simPEL-EEG_ses-3_part-4_label-recog,2021.1.4,59.99638817596092,
2,Day3_recognition,right,left,,0,1,22,22,62.0,-16055,stimuli/paired/small/spade1.jpg,nv_single,old,,right,71,24,1,0,1,0,0,21,21,21,A1,left,0,2.0198928001336753,2,2021_Oct_27_1050,simPEL-EEG_ses-3_part-4_label-recog,2021.1.4,59.99638817596092,
2,Day3_recognition,right,left,,0,1,23,23,44.0,26010,stimuli/paired/big/briefcase2.jpg,nv_single,old,,right,71,28,1,0,1,0,0,22,22,22,A1,right,1,1.9980604001320899,2,2021_Oct_27_1050,simPEL-EEG_ses-3_part-4_label-recog,2021.1.4,59.99638817596092,
2,Day3_recognition,right,left,,0,1,24,24,55.0,18036,stimuli/paired/small/hooks1.jpg,nv_single,old,,right,71,29,1,0,1,0,0,23,23,23,A1,right,1,1.0473364000208676,2,2021_Oct_27_1050,simPEL-EEG_ses-3_part-4_label-recog,2021.1.4,59.99638817596092,
2,Day3_recognition,right,left,,0,1,25,25,19.0,25039,stimuli/paired/big/radio1.jpg,v_single,old,,right,70,27,1,0,1,0,0,24,24,24,A1,right,1,1.1543629998341203,2,2021_Oct_27_1050,simPEL-EEG_ses-3_part-4_label-recog,2021.1.4,59.99638817596092,
2,Day3_recognition,right,left,,0,1,26,26,3.0,17020,stimuli/paired/small/electricRazor1.jpg,v_single,old,,right,70,15,1,0,1,0,0,25,25,25,A1,right,1,0.82912030024454,2,2021_Oct_27_1050,simPEL-EEG_ses-3_part-4_label-recog,2021.1.4,59.99638817596092,
2,Day3_recognition,right,left,,0,1,27,27,63.0,18031,stimuli/paired/small/hairBrush2.jpg,nv_single,old,,right,71,18,1,0,1,0,0,26,26,26,A1,right,1,1.8861996000632644,2,2021_Oct_27_1050,simPEL-EEG_ses-3_part-4_label-recog,2021.1.4,59.99638817596092,
2,Day3_recognition,right,left,,0,1,28,28,23.0,25029,stimuli/paired/big/hairdryer1.jpg,v_single,old,,right,70,25,1,0,1,0,0,27,27,27,A1,right,1,1.1462318999692798,2,2021_Oct_27_1050,simPEL-EEG_ses-3_part-4_label-recog,2021.1.4,59.99638817596092,
2,Day3_recognition,right,left,,0,1,29,29,foil,29068,stimuli/big/stairs.jpg,foil,new,,left,90,15,1,0,1,0,0,28,28,28,A1,right,0,0.9168967995792627,2,2021_Oct_27_1050,simPEL-EEG_ses-3_part-4_label-recog,2021.1.4,59.99638817596092,
2,Day3_recognition,right,left,,0,1,30,30,27.0,25020,stimuli/paired/big/espressoMachine2.jpg,v_single,old,,right,70,19,1,0,1,0,0,29,29,29,A1,right,1,0.8371605998836458,2,2021_Oct_27_1050,simPEL-EEG_ses-3_part-4_label-recog,2021.1.4,59.99638817596092,
2,Day3_recognition,right,left,,0,1,31,31,38.0,28012,stimuli/paired/big/broom1.jpg,nv_single,old,,right,71,22,1,0,1,0,0,30,30,30,A1,right,1,0.9315247000195086,2,2021_Oct_27_1050,simPEL-EEG_ses-3_part-4_label-recog,2021.1.4,59.99638817596092,
2,Day3_recognition,right,left,,0,1,32,32,42.0,28058,stimuli/paired/big/tent1.jpg,nv_single,old,,right,71,27,1,0,1,0,0,31,31,31,A1,right,1,2.550039400346577,2,2021_Oct_27_1050,simPEL-EEG_ses-3_part-4_label-recog,2021.1.4,59.99638817596092,
2,Day3_recognition,right,left,,0,1,33,33,52.0,26061,stimuli/paired/big/toaster1.jpg,nv_single,old,,right,71,26,1,0,1,0,0,32,32,32,A1,right,1,0.8015886996872723,2,2021_Oct_27_1050,simPEL-EEG_ses-3_part-4_label-recog,2021.1.4,59.99638817596092,
2,Day3_recognition,right,left,,0,1,34,34,56.0,-16052,stimuli/paired/small/seatbelt2.jpg,nv_single,old,,right,71,19,1,0,1,0,0,33,33,33,A1,right,1,1.1379477996379137,2,2021_Oct_27_1050,simPEL-EEG_ses-3_part-4_label-recog,2021.1.4,59.99638817596092,
2,Day3_recognition,right,left,,0,1,35,35,34.0,27047,stimuli/paired/big/scale2.jpg,v_single,old,,right,70,22,1,0,1,0,0,34,34,34,A1,right,1,0.76795390015468,2,2021_Oct_27_1050,simPEL-EEG_ses-3_part-4_label-recog,2021.1.4,59.99638817596092,
2,Day3_recognition,right,left,,0,1,36,36,foil,19037,stimuli/small/glasses.jpg,foil,new,,left,90,18,1,0,1,0,0,35,35,35,A1,left,1,0.7768870000727475,2,2021_Oct_27_1050,simPEL-EEG_ses-3_part-4_label-recog,2021.1.4,59.99638817596092,
2,Day3_recognition,right,left,,0,1,37,37,41.0,28013,stimuli/paired/big/candelabra2.jpg,nv_single,old,,right,71,20,1,0,1,0,0,36,36,36,A1,right,1,1.024336399976164,2,2021_Oct_27_1050,simPEL-EEG_ses-3_part-4_label-recog,2021.1.4,59.99638817596092,
2,Day3_recognition,right,left,,0,1,38,38,68.0,18049,stimuli/paired/small/scissors2.jpg,nv_single,old,,right,71,28,1,0,1,0,0,37,37,37,A1,right,1,0.8825563997961581,2,2021_Oct_27_1050,simPEL-EEG_ses-3_part-4_label-recog,2021.1.4,59.99638817596092,
2,Day3_recognition,right,left,,0,1,39,39,foil,29007,stimuli/big/bicycle.jpg,foil,new,,left,90,21,1,0,1,0,0,38,38,38,A1,right,0,2.265285999979824,2,2021_Oct_27_1050,simPEL-EEG_ses-3_part-4_label-recog,2021.1.4,59.99638817596092,
2,Day3_recognition,right,left,,0,1,40,40,1.0,17068,stimuli/paired/small/walkieTalkie1.jpg,v_single,old,,right,70,23,1,0,1,0,0,39,39,39,A1,right,1,0.9508231999352574,2,2021_Oct_27_1050,simPEL-EEG_ses-3_part-4_label-recog,2021.1.4,59.99638817596092,
2,Day3_recognition,right,left,,0,1,41,41,32.0,25025,stimuli/paired/big/gasPump1.jpg,v_single,old,,right,70,16,1,0,1,0,0,40,40,40,A1,right,1,1.0650206999853253,2,2021_Oct_27_1050,simPEL-EEG_ses-3_part-4_label-recog,2021.1.4,59.99638817596092,
2,Day3_recognition,right,left,,0,1,42,42,foil,19086,stimuli/small/tomato.jpg,foil,new,,left,90,28,1,0,1,0,0,41,41,41,A1,left,1,0.8831192995421588,2,2021_Oct_27_1050,simPEL-EEG_ses-3_part-4_label-recog,2021.1.4,59.99638817596092,
2,Day3_recognition,right,left,,0,1,43,43,foil,19001,stimuli/small/acorn.jpg,foil,new,,left,90,19,1,0,1,0,0,42,42,42,A1,left,1,0.8754510004073381,2,2021_Oct_27_1050,simPEL-EEG_ses-3_part-4_label-recog,2021.1.4,59.99638817596092,
2,Day3_recognition,right,left,,0,1,44,44,foil,19048,stimuli/small/mask.jpg,foil,new,,left,90,27,1,0,1,0,0,43,43,43,A1,left,1,0.9502592999488115,2,2021_Oct_27_1050,simPEL-EEG_ses-3_part-4_label-recog,2021.1.4,59.99638817596092,
2,Day3_recognition,right,left,,0,1,45,45,foil,19043,stimuli/small/kiwi.jpg,foil,new,,left,90,23,1,0,1,0,0,44,44,44,A1,right,0,1.0199128999374807,2,2021_Oct_27_1050,simPEL-EEG_ses-3_part-4_label-recog,2021.1.4,59.99638817596092,
2,Day3_recognition,right,left,,0,1,46,46,28.0,25063,stimuli/paired/big/toolbox1.jpg,v_single,old,,right,70,29,1,0,1,0,0,45,45,45,A1,left,0,0.925418000202626,2,2021_Oct_27_1050,simPEL-EEG_ses-3_part-4_label-recog,2021.1.4,59.99638817596092,
2,Day3_recognition,right,left,,0,1,47,47,20.0,25043,stimuli/paired/big/safe1.jpg,v_single,old,,right,70,26,1,0,1,0,0,46,46,46,A1,right,1,1.2729845000430942,2,2021_Oct_27_1050,simPEL-EEG_ses-3_part-4_label-recog,2021.1.4,59.99638817596092,
2,Day3_recognition,right,left,,0,1,48,48,43.0,28022,stimuli/paired/big/fancyutensils1.jpg,nv_single,old,,right,71,23,1,0,1,0,0,47,47,47,A1,right,1,0.942306799814105,2,2021_Oct_27_1050,simPEL-EEG_ses-3_part-4_label-recog,2021.1.4,59.99638817596092,
2,Day3_recognition,right,left,,0,1,49,49,2.0,-15014,stimuli/paired/small/cd2.jpg,v_single,old,,right,70,28,1,0,1,0,0,48,48,48,A1,right,1,1.2324067000299692,2,2021_Oct_27_1050,simPEL-EEG_ses-3_part-4_label-recog,2021.1.4,59.99638817596092,
2,Day3_recognition,right,left,,0,1,50,50,69.0,18042,stimuli/paired/small/perfumeBottle1.jpg,nv_single,old,,right,71,26,1,0,1,0,0,49,49,49,A1,right,1,0.96390730002895,2,2021_Oct_27_1050,simPEL-EEG_ses-3_part-4_label-recog,2021.1.4,59.99638817596092,
2,Day3_recognition,right,left,,0,1,51,51,11.0,17027,stimuli/paired/small/grater2.jpg,v_single,old,,right,70,29,1,0,1,0,0,50,50,50,A1,right,1,0.7654931996949017,2,2021_Oct_27_1050,simPEL-EEG_ses-3_part-4_label-recog,2021.1.4,59.99638817596092,
2,Day3_recognition,right,left,,0,1,52,52,37.0,26070,stimuli/paired/big/wateringCan2.jpg,nv_single,old,,right,71,29,1,0,1,0,0,51,51,51,A1,left,0,1.0309613002464175,2,2021_Oct_27_1050,simPEL-EEG_ses-3_part-4_label-recog,2021.1.4,59.99638817596092,
2,Day3_recognition,right,left,,0,1,53,53,foil,19032,stimuli/small/domino.jpg,foil,new,,left,90,16,1,0,1,0,0,52,52,52,A1,right,0,0.8251332002691925,2,2021_Oct_27_1050,simPEL-EEG_ses-3_part-4_label-recog,2021.1.4,59.99638817596092,
2,Day3_recognition,right,left,,0,1,54,54,9.0,-15003,stimuli/paired/small/bell1.jpg,v_single,old,,right,70,26,1,0,1,0,0,53,53,53,A1,right,1,1.0926153999753296,2,2021_Oct_27_1050,simPEL-EEG_ses-3_part-4_label-recog,2021.1.4,59.99638817596092,
2,Day3_recognition,right,left,,0,2,1,55,foil,19081,stimuli/small/strawberry.jpg,foil,new,,left,90,29,2,0,2,0,0,0,0,0,A2,right,0,1.249513799790293,2,2021_Oct_27_1050,simPEL-EEG_ses-3_part-4_label-recog,2021.1.4,59.99638817596092,
2,Day3_recognition,right,left,,0,2,2,56,foil,29001,stimuli/big/backhoe.jpg,foil,new,,left,90,27,2,0,2,0,0,1,1,1,A2,right,0,0.788207100238651,2,2021_Oct_27_1050,simPEL-EEG_ses-3_part-4_label-recog,2021.1.4,59.99638817596092,
2,Day3_recognition,right,left,,0,2,3,57,57.0,18059,stimuli/paired/small/tack2.jpg,nv_single,old,,right,71,16,2,0,2,0,0,2,2,2,A2,right,1,0.9983543995767832,2,2021_Oct_27_1050,simPEL-EEG_ses-3_part-4_label-recog,2021.1.4,59.99638817596092,
2,Day3_recognition,right,left,,0,2,4,58,14.0,-15011,stimuli/paired/small/camera1.jpg,v_single,old,,right,70,28,2,0,2,0,0,3,3,3,A2,right,1,1.0164878997020423,2,2021_Oct_27_1050,simPEL-EEG_ses-3_part-4_label-recog,2021.1.4,59.99638817596092,
2,Day3_recognition,right,left,,0,2,5,59,16.0,-15026,stimuli/paired/small/glove2.jpg,v_single,old,,right,70,17,2,0,2,0,0,4,4,4,A2,right,1,0.8981906999833882,2,2021_Oct_27_1050,simPEL-EEG_ses-3_part-4_label-recog,2021.1.4,59.99638817596092,
2,Day3_recognition,right,left,,0,2,6,60,7.0,-15030,stimuli/paired/small/gravyBoat2.jpg,v_single,old,,right,70,15,2,0,2,0,0,5,5,5,A2,right,1,1.0608842000365257,2,2021_Oct_27_1050,simPEL-EEG_ses-3_part-4_label-recog,2021.1.4,59.99638817596092,
2,Day3_recognition,right,left,,0,2,7,61,foil,29075,stimuli/big/table_pool.jpg,foil,new,,left,90,17,2,0,2,0,0,6,6,6,A2,right,0,0.7824824000708759,2,2021_Oct_27_1050,simPEL-EEG_ses-3_part-4_label-recog,2021.1.4,59.99638817596092,
2,Day3_recognition,right,left,,0,2,8,62,61.0,18017,stimuli/paired/small/drawingCompass2.jpg,nv_single,old,,right,71,22,2,0,2,0,0,7,7,7,A2,right,1,1.060554400086403,2,2021_Oct_27_1050,simPEL-EEG_ses-3_part-4_label-recog,2021.1.4,59.99638817596092,
2,Day3_recognition,right,left,,0,2,9,63,71.0,-16008,stimuli/paired/small/binoculars2.jpg,nv_single,old,,right,71,21,2,0,2,0,0,8,8,8,A2,right,1,0.883377400226891,2,2021_Oct_27_1050,simPEL-EEG_ses-3_part-4_label-recog,2021.1.4,59.99638817596092,
2,Day3_recognition,right,left,,0,2,10,64,26.0,25023,stimuli/paired/big/fireExtinguisher1.jpg,v_single,old,,right,70,17,2,0,2,0,0,9,9,9,A2,right,1,0.9731069998815656,2,2021_Oct_27_1050,simPEL-EEG_ses-3_part-4_label-recog,2021.1.4,59.99638817596092,
2,Day3_recognition,right,left,,0,2,11,65,10.0,17070,stimuli/paired/small/watch1.jpg,v_single,old,,right,70,22,2,0,2,0,0,10,10,10,A2,right,1,0.907037999946624,2,2021_Oct_27_1050,simPEL-EEG_ses-3_part-4_label-recog,2021.1.4,59.99638817596092,
2,Day3_recognition,right,left,,0,2,12,66,67.0,-16038,stimuli/paired/small/knife2.jpg,nv_single,old,,right,71,22,2,0,2,0,0,11,11,11,A2,right,1,1.7454536999575794,2,2021_Oct_27_1050,simPEL-EEG_ses-3_part-4_label-recog,2021.1.4,59.99638817596092,
2,Day3_recognition,right,left,,0,2,13,67,40.0,28031,stimuli/paired/big/lamp2.jpg,nv_single,old,,right,71,17,2,0,2,0,0,12,12,12,A2,right,1,0.8187918998301029,2,2021_Oct_27_1050,simPEL-EEG_ses-3_part-4_label-recog,2021.1.4,59.99638817596092,
2,Day3_recognition,right,left,,0,2,14,68,51.0,26006,stimuli/paired/big/bikeWheel2.jpg,nv_single,old,,right,71,27,2,0,2,0,0,13,13,13,A2,right,1,1.4935671002604067,2,2021_Oct_27_1050,simPEL-EEG_ses-3_part-4_label-recog,2021.1.4,59.99638817596092,
2,Day3_recognition,right,left,,0,2,15,69,foil,29023,stimuli/big/car_all_terrain_vehicle.jpg,foil,new,,left,90,16,2,0,2,0,0,14,14,14,A2,right,0,1.2238090997561812,2,2021_Oct_27_1050,simPEL-EEG_ses-3_part-4_label-recog,2021.1.4,59.99638817596092,
2,Day3_recognition,right,left,,0,2,16,70,50.0,28038,stimuli/paired/big/racket1.jpg,nv_single,old,,right,71,17,2,0,2,0,0,15,15,15,A2,right,1,1.0974261998198926,2,2021_Oct_27_1050,simPEL-EEG_ses-3_part-4_label-recog,2021.1.4,59.99638817596092,
2,Day3_recognition,right,left,,0,2,17,71,29.0,25034,stimuli/paired/big/laundrybasket2.jpg,v_single,old,,right,70,23,2,0,2,0,0,16,16,16,A2,right,1,0.958831699565053,2,2021_Oct_27_1050,simPEL-EEG_ses-3_part-4_label-recog,2021.1.4,59.99638817596092,
2,Day3_recognition,right,left,,0,2,18,72,foil,29013,stimuli/big/board_key.jpg,foil,new,,left,90,24,2,0,2,0,0,17,17,17,A2,right,0,0.8597818999551237,2,2021_Oct_27_1050,simPEL-EEG_ses-3_part-4_label-recog,2021.1.4,59.99638817596092,
2,Day3_recognition,right,left,,0,2,19,73,foil,29087,stimuli/big/z_boat_house.jpg,foil,new,,left,90,22,2,0,2,0,0,18,18,18,A2,right,0,0.8260428998619318,2,2021_Oct_27_1050,simPEL-EEG_ses-3_part-4_label-recog,2021.1.4,59.99638817596092,
2,Day3_recognition,right,left,,0,2,20,74,72.0,-16047,stimuli/paired/small/safetyPin1.jpg,nv_single,old,,right,71,22,2,0,2,0,0,19,19,19,A2,left,0,3.599878399632871,2,2021_Oct_27_1050,simPEL-EEG_ses-3_part-4_label-recog,2021.1.4,59.99638817596092,
2,Day3_recognition,right,left,,0,2,21,75,39.0,28027,stimuli/paired/big/gramophone2.jpg,nv_single,old,,right,71,19,2,0,2,0,0,20,20,20,A2,right,1,1.1362373000010848,2,2021_Oct_27_1050,simPEL-EEG_ses-3_part-4_label-recog,2021.1.4,59.99638817596092,
2,Day3_recognition,right,left,,0,2,22,76,foil,19003,stimuli/small/avocado.jpg,foil,new,,left,90,23,2,0,2,0,0,21,21,21,A2,right,0,0.8537145000882447,2,2021_Oct_27_1050,simPEL-EEG_ses-3_part-4_label-recog,2021.1.4,59.99638817596092,
2,Day3_recognition,right,left,,0,2,23,77,49.0,26071,stimuli/paired/big/weedwhacker1.jpg,nv_single,old,,right,71,25,2,0,2,0,0,22,22,22,A2,left,0,2.8497702996246517,2,2021_Oct_27_1050,simPEL-EEG_ses-3_part-4_label-recog,2021.1.4,59.99638817596092,
2,Day3_recognition,right,left,,0,2,24,78,12.0,17064,stimuli/paired/small/toothbrush1.jpg,v_single,old,,right,70,26,2,0,2,0,0,23,23,23,A2,right,1,1.0857379999943078,2,2021_Oct_27_1050,simPEL-EEG_ses-3_part-4_label-recog,2021.1.4,59.99638817596092,
2,Day3_recognition,right,left,,0,2,25,79,70.0,18062,stimuli/paired/small/tape1.jpg,nv_single,old,,right,71,26,2,0,2,0,0,24,24,24,A2,left,0,1.7847897000610828,2,2021_Oct_27_1050,simPEL-EEG_ses-3_part-4_label-recog,2021.1.4,59.99638817596092,
2,Day3_recognition,right,left,,0,2,26,80,4.0,-15045,stimuli/paired/small/plug1.jpg,v_single,old,,right,70,20,2,0,2,0,0,25,25,25,A2,right,1,1.096425199881196,2,2021_Oct_27_1050,simPEL-EEG_ses-3_part-4_label-recog,2021.1.4,59.99638817596092,
2,Day3_recognition,right,left,,0,2,27,81,30.0,27068,stimuli/paired/big/typeWriter1.jpg,v_single,old,,right,70,22,2,0,2,0,0,26,26,26,A2,right,1,0.7985227000899613,2,2021_Oct_27_1050,simPEL-EEG_ses-3_part-4_label-recog,2021.1.4,59.99638817596092,
2,Day3_recognition,right,left,,0,2,28,82,58.0,-16016,stimuli/paired/small/dice2.jpg,nv_single,old,,right,71,19,2,0,2,0,0,27,27,27,A2,right,1,1.2147476999089122,2,2021_Oct_27_1050,simPEL-EEG_ses-3_part-4_label-recog,2021.1.4,59.99638817596092,
2,Day3_recognition,right,left,,0,2,29,83,15.0,17040,stimuli/paired/small/lighter1.jpg,v_single,old,,right,70,30,2,0,2,0,0,28,28,28,A2,right,1,1.247541000135243,2,2021_Oct_27_1050,simPEL-EEG_ses-3_part-4_label-recog,2021.1.4,59.99638817596092,
2,Day3_recognition,right,left,,0,2,30,84,foil,29002,stimuli/big/bag_sleeping.jpg,foil,new,,left,90,20,2,0,2,0,0,29,29,29,A2,right,0,0.8391729998402297,2,2021_Oct_27_1050,simPEL-EEG_ses-3_part-4_label-recog,2021.1.4,59.99638817596092,
2,Day3_recognition,right,left,,0,2,31,85,foil,19077,stimuli/small/stamp.jpg,foil,new,,left,90,28,2,0,2,0,0,30,30,30,A2,right,0,0.8332058000378311,2,2021_Oct_27_1050,simPEL-EEG_ses-3_part-4_label-recog,2021.1.4,59.99638817596092,
2,Day3_recognition,right,left,,0,2,32,86,18.0,17010,stimuli/paired/small/calculator1.jpg,v_single,old,,right,70,18,2,0,2,0,0,31,31,31,A2,left,0,1.186307500116527,2,2021_Oct_27_1050,simPEL-EEG_ses-3_part-4_label-recog,2021.1.4,59.99638817596092,
2,Day3_recognition,right,left,,0,2,33,87,foil,29010,stimuli/big/bin_recycling.jpg,foil,new,,left,90,21,2,0,2,0,0,32,32,32,A2,right,0,0.9530726000666618,2,2021_Oct_27_1050,simPEL-EEG_ses-3_part-4_label-recog,2021.1.4,59.99638817596092,
2,Day3_recognition,right,left,,0,2,34,88,24.0,25055,stimuli/paired/big/telescope1.jpg,v_single,old,,right,70,29,2,0,2,0,0,33,33,33,A2,right,1,1.2264605001546443,2,2021_Oct_27_1050,simPEL-EEG_ses-3_part-4_label-recog,2021.1.4,59.99638817596092,
2,Day3_recognition,right,left,,0,2,35,89,5.0,17072,stimuli/paired/small/wrench1.jpg,v_single,old,,right,70,20,2,0,2,0,0,34,34,34,A2,right,1,1.049929500091821,2,2021_Oct_27_1050,simPEL-EEG_ses-3_part-4_label-recog,2021.1.4,59.99638817596092,
2,Day3_recognition,right,left,,0,2,36,90,31.0,27004,stimuli/paired/big/bikePump1.jpg,v_single,old,,right,70,29,2,0,2,0,0,35,35,35,A2,left,0,1.123422000091523,2,2021_Oct_27_1050,simPEL-EEG_ses-3_part-4_label-recog,2021.1.4,59.99638817596092,
2,Day3_recognition,right,left,,0,2,37,91,8.0,-15054,stimuli/paired/small/showerHead2.jpg,v_single,old,,right,70,22,2,0,2,0,0,36,36,36,A2,right,1,1.0415849997662008,2,2021_Oct_27_1050,simPEL-EEG_ses-3_part-4_label-recog,2021.1.4,59.99638817596092,
2,Day3_recognition,right,left,,0,2,38,92,46.0,28035,stimuli/paired/big/plunger2.jpg,nv_single,old,,right,71,25,2,0,2,0,0,37,37,37,A2,right,1,1.0138583998195827,2,2021_Oct_27_1050,simPEL-EEG_ses-3_part-4_label-recog,2021.1.4,59.99638817596092,
2,Day3_recognition,right,left,,0,2,39,93,foil,19024,stimuli/small/coin_nickel.jpg,foil,new,,left,90,28,2,0,2,0,0,38,38,38,A2,right,0,0.8719473998062313,2,2021_Oct_27_1050,simPEL-EEG_ses-3_part-4_label-recog,2021.1.4,59.99638817596092,
2,Day3_recognition,right,left,,0,2,40,94,53.0,26007,stimuli/paired/big/blender1.jpg,nv_single,old,,right,71,16,2,0,2,0,0,39,39,39,A2,left,0,1.4260881999507546,2,2021_Oct_27_1050,simPEL-EEG_ses-3_part-4_label-recog,2021.1.4,59.99638817596092,
2,Day3_recognition,right,left,,0,2,41,95,36.0,25041,stimuli/paired/big/rollerSkate1.jpg,v_single,old,,right,70,22,2,0,2,0,0,40,40,40,A2,right,1,1.1525026001036167,2,2021_Oct_27_1050,simPEL-EEG_ses-3_part-4_label-recog,2021.1.4,59.99638817596092,
2,Day3_recognition,right,left,,0,2,42,96,17.0,17058,stimuli/paired/small/staplerRemover1.jpg,v_single,old,,right,70,21,2,0,2,0,0,41,41,41,A2,right,1,0.9351526000536978,2,2021_Oct_27_1050,simPEL-EEG_ses-3_part-4_label-recog,2021.1.4,59.99638817596092,
2,Day3_recognition,right,left,,0,2,43,97,foil,19009,stimuli/small/brocolli.jpg,foil,new,,left,90,25,2,0,2,0,0,42,42,42,A2,right,0,0.6594115002080798,2,2021_Oct_27_1050,simPEL-EEG_ses-3_part-4_label-recog,2021.1.4,59.99638817596092,
2,Day3_recognition,right,left,,0,2,44,98,22.0,27060,stimuli/paired/big/tire1.jpg,v_single,old,,right,70,25,2,0,2,0,0,43,43,43,A2,right,1,2.5674221999943256,2,2021_Oct_27_1050,simPEL-EEG_ses-3_part-4_label-recog,2021.1.4,59.99638817596092,
2,Day3_recognition,right,left,,0,2,45,99,47.0,28053,stimuli/paired/big/tableSaw2.jpg,nv_single,old,,right,71,29,2,0,2,0,0,44,44,44,A2,left,0,0.8970311000011861,2,2021_Oct_27_1050,simPEL-EEG_ses-3_part-4_label-recog,2021.1.4,59.99638817596092,
2,Day3_recognition,right,left,,0,2,46,100,foil,29083,stimuli/big/vest_life.jpg,foil,new,,left,90,18,2,0,2,0,0,45,45,45,A2,right,0,0.7778905001468956,2,2021_Oct_27_1050,simPEL-EEG_ses-3_part-4_label-recog,2021.1.4,59.99638817596092,
2,Day3_recognition,right,left,,0,2,47,101,foil,29037,stimuli/big/food_processor.jpg,foil,new,,left,90,27,2,0,2,0,0,46,46,46,A2,left,1,0.9327956000342965,2,2021_Oct_27_1050,simPEL-EEG_ses-3_part-4_label-recog,2021.1.4,59.99638817596092,
2,Day3_recognition,right,left,,0,2,48,102,foil,19006,stimuli/small/bandaid.jpg,foil,new,,left,90,18,2,0,2,0,0,47,47,47,A2,left,1,0.8296409002505243,2,2021_Oct_27_1050,simPEL-EEG_ses-3_part-4_label-recog,2021.1.4,59.99638817596092,
2,Day3_recognition,right,left,,0,2,49,103,foil,19084,stimuli/small/thread.jpg,foil,new,,left,90,24,2,0,2,0,0,48,48,48,A2,right,0,0.7225168999284506,2,2021_Oct_27_1050,simPEL-EEG_ses-3_part-4_label-recog,2021.1.4,59.99638817596092,
2,Day3_recognition,right,left,,0,2,50,104,65.0,18033,stimuli/paired/small/harmonica2.jpg,nv_single,old,,right,71,22,2,0,2,0,0,49,49,49,A2,right,1,0.8566200002096593,2,2021_Oct_27_1050,simPEL-EEG_ses-3_part-4_label-recog,2021.1.4,59.99638817596092,
2,Day3_recognition,right,left,,0,2,51,105,foil,29028,stimuli/big/chair_lawn.jpg,foil,new,,left,90,15,2,0,2,0,0,50,50,50,A2,right,0,0.6834102002903819,2,2021_Oct_27_1050,simPEL-EEG_ses-3_part-4_label-recog,2021.1.4,59.99638817596092,
2,Day3_recognition,right,left,,0,2,52,106,66.0,-16021,stimuli/paired/small/garlicpress1.jpg,nv_single,old,,right,71,27,2,0,2,0,0,51,51,51,A2,right,1,0.9342106003314257,2,2021_Oct_27_1050,simPEL-EEG_ses-3_part-4_label-recog,2021.1.4,59.99638817596092,
2,Day3_recognition,right,left,,0,2,53,107,60.0,-16065,stimuli/paired/small/toyTruck1.jpg,nv_single,old,,right,71,23,2,0,2,0,0,52,52,52,A2,right,1,1.0357272000983357,2,2021_Oct_27_1050,simPEL-EEG_ses-3_part-4_label-recog,2021.1.4,59.99638817596092,
2,Day3_recognition,right,left,,0,2,54,108,foil,29072,stimuli/big/stroller.jpg,foil,new,,left,90,29,2,0,2,0,0,53,53,53,A2,right,0,0.8133434997871518,2,2021_Oct_27_1050,simPEL-EEG_ses-3_part-4_label-recog,2021.1.4,59.99638817596092,
